<svg width="114" height="149" viewBox="0 0 114 149" fill="none" xmlns="http://www.w3.org/2000/svg">
<g opacity="0.5">
<path d="M49.5 74.4487L-15 111.707V37.2578L49.5 0V74.4487Z" fill="url(#paint0_linear)"/>
<path d="M114 111.707L49.5 74.4487V0L114 37.2578V111.707Z" fill="url(#paint1_linear)"/>
<path opacity="0.98" d="M49.5 148.964L-15 111.707V37.2578L49.5 74.4488V148.964Z" fill="url(#paint2_linear)"/>
<path opacity="0.98" d="M49.5 74.4488L-15 37.2578L49.5 0L114 37.2578L49.5 74.4488Z" fill="url(#paint3_linear)"/>
<path opacity="0.98" d="M114 111.707L49.5 148.964V74.4488L114 37.2578V111.707Z" fill="url(#paint4_linear)"/>
<path d="M114 37.2578L49.5 74.4488L-15 37.2578V38.1258L49.0994 75.1165V148.697L49.5 148.964L49.9006 148.697V75.1165L114 38.1258V37.2578Z" fill="url(#paint5_linear)"/>
</g>
<defs>
<linearGradient id="paint0_linear" x1="-15.0019" y1="55.8543" x2="49.4941" y2="55.8543" gradientUnits="userSpaceOnUse">
<stop stop-color="white"/>
<stop offset="1" stop-color="#BDE2FC"/>
</linearGradient>
<linearGradient id="paint1_linear" x1="49.4941" y1="55.8562" x2="113.998" y2="55.8562" gradientUnits="userSpaceOnUse">
<stop stop-color="white"/>
<stop offset="1" stop-color="#BDE2FC"/>
</linearGradient>
<linearGradient id="paint2_linear" x1="-86.8639" y1="148.095" x2="90.1073" y2="54.6007" gradientUnits="userSpaceOnUse">
<stop stop-color="white"/>
<stop offset="1" stop-color="#BDE2FC"/>
</linearGradient>
<linearGradient id="paint3_linear" x1="-63.4191" y1="37.2362" x2="146.361" y2="37.2362" gradientUnits="userSpaceOnUse">
<stop stop-color="white"/>
<stop offset="1" stop-color="#BDE2FC"/>
</linearGradient>
<linearGradient id="paint4_linear" x1="-11.9411" y1="33.267" x2="105.063" y2="107.981" gradientUnits="userSpaceOnUse">
<stop stop-color="white"/>
<stop offset="1" stop-color="#BDE2FC"/>
</linearGradient>
<linearGradient id="paint5_linear" x1="-15.0019" y1="93.0911" x2="113.998" y2="93.0911" gradientUnits="userSpaceOnUse">
<stop stop-color="white"/>
<stop offset="1" stop-color="#BDE2FC"/>
</linearGradient>
</defs>
</svg>
