<svg width="129" height="149" viewBox="0 0 129 149" fill="none" xmlns="http://www.w3.org/2000/svg">
<g opacity="0.5">
<path d="M64.5 74.4487L0 111.707V37.2578L64.5 0V74.4487Z" fill="url(#paint0_linear)"/>
<path d="M129 111.707L64.5 74.4487V0L129 37.2578V111.707Z" fill="url(#paint1_linear)"/>
<path opacity="0.98" d="M64.5 148.964L0 111.706V37.2576L64.5 74.4486V148.964Z" fill="url(#paint2_linear)"/>
<path opacity="0.98" d="M64.5 74.4488L0 37.2578L64.5 0L129 37.2578L64.5 74.4488Z" fill="url(#paint3_linear)"/>
<path opacity="0.98" d="M129 111.706L64.5 148.964V74.4486L129 37.2576V111.706Z" fill="url(#paint4_linear)"/>
<path d="M129 37.2576L64.5 74.4486L0 37.2576V38.1256L64.0994 75.1163V148.697L64.5 148.964L64.9006 148.697V75.1163L129 38.1256V37.2576Z" fill="url(#paint5_linear)"/>
</g>
<defs>
<linearGradient id="paint0_linear" x1="-0.00186957" y1="55.8543" x2="64.4941" y2="55.8543" gradientUnits="userSpaceOnUse">
<stop stop-color="white"/>
<stop offset="1" stop-color="#BDE2FC"/>
</linearGradient>
<linearGradient id="paint1_linear" x1="64.4941" y1="55.8562" x2="128.998" y2="55.8562" gradientUnits="userSpaceOnUse">
<stop stop-color="white"/>
<stop offset="1" stop-color="#BDE2FC"/>
</linearGradient>
<linearGradient id="paint2_linear" x1="-71.8639" y1="148.095" x2="105.107" y2="54.6005" gradientUnits="userSpaceOnUse">
<stop stop-color="white"/>
<stop offset="1" stop-color="#BDE2FC"/>
</linearGradient>
<linearGradient id="paint3_linear" x1="-48.4191" y1="37.2362" x2="161.361" y2="37.2362" gradientUnits="userSpaceOnUse">
<stop stop-color="white"/>
<stop offset="1" stop-color="#BDE2FC"/>
</linearGradient>
<linearGradient id="paint4_linear" x1="3.05889" y1="33.2667" x2="120.063" y2="107.98" gradientUnits="userSpaceOnUse">
<stop stop-color="white"/>
<stop offset="1" stop-color="#BDE2FC"/>
</linearGradient>
<linearGradient id="paint5_linear" x1="-0.00186956" y1="93.0909" x2="128.998" y2="93.0909" gradientUnits="userSpaceOnUse">
<stop stop-color="white"/>
<stop offset="1" stop-color="#BDE2FC"/>
</linearGradient>
</defs>
</svg>
