<svg width="257" height="297" viewBox="0 0 257 297" fill="none" xmlns="http://www.w3.org/2000/svg">
<g opacity="0.5">
<path d="M128.5 148.32L0 222.547V74.2267L128.5 0V148.32Z" fill="url(#paint0_linear)"/>
<path d="M257 222.547L128.5 148.32V0L257 74.2267V222.547Z" fill="url(#paint1_linear)"/>
<path opacity="0.98" d="M128.5 296.774L0 222.547V74.2266L128.5 148.32V296.774Z" fill="url(#paint2_linear)"/>
<path opacity="0.98" d="M128.5 148.32L0 74.2267L128.5 0L257 74.2267L128.5 148.32Z" fill="url(#paint3_linear)"/>
<path opacity="0.98" d="M257 222.547L128.5 296.774V148.32L257 74.2266V222.547Z" fill="url(#paint4_linear)"/>
<path d="M257 74.2266L128.5 148.32L0 74.2266V75.9559L127.702 149.65V296.242L128.5 296.774L129.298 296.242V149.65L257 75.9559V74.2266Z" fill="url(#paint5_linear)"/>
</g>
<defs>
<linearGradient id="paint0_linear" x1="-0.00372464" y1="111.276" x2="128.488" y2="111.276" gradientUnits="userSpaceOnUse">
<stop stop-color="white"/>
<stop offset="1" stop-color="#BDE2FC"/>
</linearGradient>
<linearGradient id="paint1_linear" x1="128.488" y1="111.279" x2="256.995" y2="111.279" gradientUnits="userSpaceOnUse">
<stop stop-color="white"/>
<stop offset="1" stop-color="#BDE2FC"/>
</linearGradient>
<linearGradient id="paint2_linear" x1="-143.171" y1="295.042" x2="209.4" y2="108.778" gradientUnits="userSpaceOnUse">
<stop stop-color="white"/>
<stop offset="1" stop-color="#BDE2FC"/>
</linearGradient>
<linearGradient id="paint3_linear" x1="-96.4628" y1="74.1837" x2="321.471" y2="74.1837" gradientUnits="userSpaceOnUse">
<stop stop-color="white"/>
<stop offset="1" stop-color="#BDE2FC"/>
</linearGradient>
<linearGradient id="paint4_linear" x1="6.09407" y1="66.2758" x2="239.196" y2="215.124" gradientUnits="userSpaceOnUse">
<stop stop-color="white"/>
<stop offset="1" stop-color="#BDE2FC"/>
</linearGradient>
<linearGradient id="paint5_linear" x1="-0.00372464" y1="185.46" x2="256.995" y2="185.46" gradientUnits="userSpaceOnUse">
<stop stop-color="white"/>
<stop offset="1" stop-color="#BDE2FC"/>
</linearGradient>
</defs>
</svg>
