<svg width="80" height="88" viewBox="0 0 80 88" fill="none" xmlns="http://www.w3.org/2000/svg">
<path d="M80 58.345V28.9277C80 23.8348 77.2735 19.1338 72.8251 16.6051L47.1749 1.89646C42.7265 -0.632153 37.2735 -0.632153 32.8251 1.89646L7.17489 16.6051C2.72646 19.1338 0 23.8705 0 28.9277V58.345C0 63.4379 2.72646 68.139 7.17489 70.6676L32.8251 85.3763C37.2735 87.9049 42.7265 87.9049 47.1749 85.3763L72.8251 70.6676C77.2735 68.139 80 63.4379 80 58.345Z" fill="url(#paint0_linear)"/>
<g clip-path="url(#clip0)">
<path d="M37.8125 43.5C37.0698 43.5 36.4688 42.8983 36.4688 42.1562C36.4688 39.9333 38.277 38.125 40.5 38.125C41.2427 38.125 41.8438 38.7267 41.8438 39.4688C41.8438 40.2108 41.2427 40.8125 40.5 40.8125C39.7586 40.8125 39.1562 41.4155 39.1562 42.1562C39.1562 42.8983 38.5552 43.5 37.8125 43.5Z" fill="white"/>
<path d="M53.9375 43.5C52.8132 43.5 51.7975 43.9649 51.0656 44.7096L48.3886 43.8172C48.5015 43.2809 48.5625 42.7258 48.5625 42.1562C48.5625 40.4175 48.0038 38.8103 47.0642 37.4918L52.1387 32.4177C52.7037 32.6201 53.3037 32.75 53.9375 32.75C56.9019 32.75 59.3125 30.3387 59.3125 27.375C59.3125 24.4113 56.9019 22 53.9375 22C50.9731 22 48.5625 24.4113 48.5625 27.375C48.5625 28.7151 49.073 29.9267 49.8869 30.8692L45.1644 35.592C43.8459 34.6524 42.2387 34.0938 40.5 34.0938C38.7613 34.0938 37.1541 34.6524 35.8356 35.592L31.3099 31.066C32.0031 30.2465 32.4375 29.2013 32.4375 28.0469C32.4375 25.4539 30.3274 23.3438 27.7344 23.3438C25.1414 23.3438 23.0312 25.4539 23.0312 28.0469C23.0312 30.6399 25.1414 32.75 27.7344 32.75C28.1753 32.75 28.5939 32.6696 28.9991 32.5555L33.9358 37.4918C32.9962 38.8103 32.4375 40.4175 32.4375 42.1562C32.4375 43.895 32.9962 45.5022 33.9358 46.8207L30.9409 49.8156C30.0092 49.2283 28.9147 48.875 27.7344 48.875C24.3999 48.875 21.6875 51.5874 21.6875 54.9219C21.6875 58.2563 24.3999 60.9688 27.7344 60.9688C31.0688 60.9688 33.7812 58.2563 33.7812 54.9219C33.7812 53.7415 33.4279 52.6471 32.8407 51.7154L35.8356 48.7205C37.1541 49.6601 38.7613 50.2188 40.5 50.2188C40.5984 50.2188 40.6939 50.2076 40.7913 50.204L41.5803 53.3596C39.3738 54.2618 37.8125 56.4257 37.8125 58.9531C37.8125 62.2876 40.5249 65 43.8594 65C47.1938 65 49.9062 62.2876 49.9062 58.9531C49.9062 55.7512 47.3975 53.149 44.2458 52.9453L43.4247 49.6614C45.0867 49.0111 46.4777 47.8268 47.392 46.3181L49.943 47.1684C49.9318 47.2898 49.9062 47.4069 49.9062 47.5309C49.9062 49.7539 51.7145 51.5622 53.9375 51.5622C56.1605 51.5622 57.9688 49.7539 57.9688 47.5309C57.9688 45.3083 56.1605 43.5 53.9375 43.5ZM47.2188 58.9531C47.2188 60.8054 45.7123 62.3125 43.8594 62.3125C42.0065 62.3125 40.5 60.8054 40.5 58.9531C40.5 57.1009 42.0065 55.5938 43.8594 55.5938C45.7123 55.5938 47.2188 57.1009 47.2188 58.9531ZM53.9375 24.6875C55.419 24.6875 56.625 25.8928 56.625 27.375C56.625 28.8572 55.419 30.0625 53.9375 30.0625C52.456 30.0625 51.25 28.8572 51.25 27.375C51.25 25.8928 52.456 24.6875 53.9375 24.6875ZM25.7188 28.0469C25.7188 26.9354 26.6229 26.0312 27.7344 26.0312C28.8459 26.0312 29.75 26.9354 29.75 28.0469C29.75 29.1584 28.8459 30.0625 27.7344 30.0625C26.6229 30.0625 25.7188 29.1584 25.7188 28.0469ZM27.7344 58.2812C25.8815 58.2812 24.375 56.7741 24.375 54.9219C24.375 53.0696 25.8815 51.5625 27.7344 51.5625C29.5873 51.5625 31.0938 53.0696 31.0938 54.9219C31.0938 56.7741 29.5873 58.2812 27.7344 58.2812ZM40.5 47.5312C37.5356 47.5312 35.125 45.12 35.125 42.1562C35.125 39.1925 37.5356 36.7812 40.5 36.7812C43.4644 36.7812 45.875 39.1925 45.875 42.1562C45.875 45.12 43.4644 47.5312 40.5 47.5312ZM53.9375 48.875C53.1961 48.875 52.5938 48.272 52.5938 47.5312C52.5938 46.7905 53.1961 46.1875 53.9375 46.1875C54.6789 46.1875 55.2812 46.7905 55.2812 47.5312C55.2812 48.272 54.6789 48.875 53.9375 48.875Z" fill="white"/>
</g>
<defs>
<linearGradient id="paint0_linear" x1="4.16466" y1="66.9831" x2="76.9109" y2="18.8868" gradientUnits="userSpaceOnUse">
<stop offset="0.0363128" stop-color="#FDAFFF"/>
<stop offset="1" stop-color="#AD26FF"/>
</linearGradient>
<clipPath id="clip0">
<rect width="43" height="43" fill="white" transform="translate(19 22)"/>
</clipPath>
</defs>
</svg>
