<svg width="62" height="116" viewBox="0 0 62 116" fill="none" xmlns="http://www.w3.org/2000/svg">
<g opacity="0.3">
<mask id="mask0" mask-type="alpha" maskUnits="userSpaceOnUse" x="-10" y="0" width="12" height="12">
<path d="M-4.20948 11.0025C-1.32192 11.0025 1.01891 8.6687 1.01891 5.78993C1.01891 2.91116 -1.32192 0.577469 -4.20948 0.577469C-7.09703 0.577469 -9.43787 2.91116 -9.43787 5.78993C-9.43787 8.6687 -7.09703 11.0025 -4.20948 11.0025Z" fill="url(#paint0_linear)"/>
</mask>
<g mask="url(#mask0)">
<path d="M-4.20948 11.0025C-1.32192 11.0025 1.01891 8.6687 1.01891 5.78993C1.01891 2.91116 -1.32192 0.577469 -4.20948 0.577469C-7.09703 0.577469 -9.43787 2.91116 -9.43787 5.78993C-9.43787 8.6687 -7.09703 11.0025 -4.20948 11.0025Z" fill="url(#paint1_linear)"/>
</g>
<mask id="mask1" mask-type="alpha" maskUnits="userSpaceOnUse" x="20" y="0" width="12" height="12">
<path d="M26.0717 11.0025C28.9592 11.0025 31.3 8.6687 31.3 5.78993C31.3 2.91116 28.9592 0.577469 26.0717 0.577469C23.1841 0.577469 20.8433 2.91116 20.8433 5.78993C20.8433 8.6687 23.1841 11.0025 26.0717 11.0025Z" fill="url(#paint2_linear)"/>
</mask>
<g mask="url(#mask1)">
<path d="M26.0717 11.0025C28.9592 11.0025 31.3 8.6687 31.3 5.78993C31.3 2.91116 28.9592 0.577469 26.0717 0.577469C23.1841 0.577469 20.8433 2.91116 20.8433 5.78993C20.8433 8.6687 23.1841 11.0025 26.0717 11.0025Z" fill="url(#paint3_linear)"/>
</g>
<mask id="mask2" mask-type="alpha" maskUnits="userSpaceOnUse" x="51" y="0" width="11" height="12">
<path d="M56.3526 11.0025C59.2402 11.0025 61.581 8.6687 61.581 5.78993C61.581 2.91116 59.2402 0.577469 56.3526 0.577469C53.4651 0.577469 51.1243 2.91116 51.1243 5.78993C51.1243 8.6687 53.4651 11.0025 56.3526 11.0025Z" fill="url(#paint4_linear)"/>
</mask>
<g mask="url(#mask2)">
<path d="M56.3526 11.0025C59.2402 11.0025 61.581 8.6687 61.581 5.78993C61.581 2.91116 59.2402 0.577469 56.3526 0.577469C53.4651 0.577469 51.1243 2.91116 51.1243 5.78993C51.1243 8.6687 53.4651 11.0025 56.3526 11.0025Z" fill="url(#paint5_linear)"/>
</g>
<mask id="mask3" mask-type="alpha" maskUnits="userSpaceOnUse" x="-10" y="26" width="12" height="12">
<path d="M-4.20948 37.1733C-1.32192 37.1733 1.01891 34.8396 1.01891 31.9609C1.01891 29.0821 -1.32192 26.7484 -4.20948 26.7484C-7.09703 26.7484 -9.43787 29.0821 -9.43787 31.9609C-9.43787 34.8396 -7.09703 37.1733 -4.20948 37.1733Z" fill="url(#paint6_linear)"/>
</mask>
<g mask="url(#mask3)">
<path d="M-4.20948 37.1733C-1.32192 37.1733 1.01891 34.8396 1.01891 31.9609C1.01891 29.0821 -1.32192 26.7484 -4.20948 26.7484C-7.09703 26.7484 -9.43787 29.0821 -9.43787 31.9609C-9.43787 34.8396 -7.09703 37.1733 -4.20948 37.1733Z" fill="url(#paint7_linear)"/>
</g>
<mask id="mask4" mask-type="alpha" maskUnits="userSpaceOnUse" x="20" y="26" width="12" height="12">
<path d="M26.0717 37.1733C28.9592 37.1733 31.3 34.8396 31.3 31.9609C31.3 29.0821 28.9592 26.7484 26.0717 26.7484C23.1841 26.7484 20.8433 29.0821 20.8433 31.9609C20.8433 34.8396 23.1841 37.1733 26.0717 37.1733Z" fill="url(#paint8_linear)"/>
</mask>
<g mask="url(#mask4)">
<path d="M26.0717 37.1733C28.9592 37.1733 31.3 34.8396 31.3 31.9609C31.3 29.0821 28.9592 26.7484 26.0717 26.7484C23.1841 26.7484 20.8433 29.0821 20.8433 31.9609C20.8433 34.8396 23.1841 37.1733 26.0717 37.1733Z" fill="url(#paint9_linear)"/>
</g>
<mask id="mask5" mask-type="alpha" maskUnits="userSpaceOnUse" x="51" y="26" width="11" height="12">
<path d="M56.3526 37.1733C59.2402 37.1733 61.581 34.8396 61.581 31.9609C61.581 29.0821 59.2402 26.7484 56.3526 26.7484C53.4651 26.7484 51.1243 29.0821 51.1243 31.9609C51.1243 34.8396 53.4651 37.1733 56.3526 37.1733Z" fill="url(#paint10_linear)"/>
</mask>
<g mask="url(#mask5)">
<path d="M56.3526 37.1733C59.2402 37.1733 61.581 34.8396 61.581 31.9609C61.581 29.0821 59.2402 26.7484 56.3526 26.7484C53.4651 26.7484 51.1243 29.0821 51.1243 31.9609C51.1243 34.8396 53.4651 37.1733 56.3526 37.1733Z" fill="url(#paint11_linear)"/>
</g>
<mask id="mask6" mask-type="alpha" maskUnits="userSpaceOnUse" x="-10" y="52" width="12" height="12">
<path d="M-4.20948 63.29C-1.32192 63.29 1.01891 60.9563 1.01891 58.0775C1.01891 55.1987 -1.32192 52.865 -4.20948 52.865C-7.09703 52.865 -9.43787 55.1987 -9.43787 58.0775C-9.43787 60.9563 -7.09703 63.29 -4.20948 63.29Z" fill="url(#paint12_linear)"/>
</mask>
<g mask="url(#mask6)">
<path d="M-4.20948 63.29C-1.32192 63.29 1.01891 60.9563 1.01891 58.0775C1.01891 55.1987 -1.32192 52.865 -4.20948 52.865C-7.09703 52.865 -9.43787 55.1987 -9.43787 58.0775C-9.43787 60.9563 -7.09703 63.29 -4.20948 63.29Z" fill="url(#paint13_linear)"/>
</g>
<mask id="mask7" mask-type="alpha" maskUnits="userSpaceOnUse" x="20" y="52" width="12" height="12">
<path d="M26.0717 63.29C28.9592 63.29 31.3 60.9563 31.3 58.0775C31.3 55.1987 28.9592 52.865 26.0717 52.865C23.1841 52.865 20.8433 55.1987 20.8433 58.0775C20.8433 60.9563 23.1841 63.29 26.0717 63.29Z" fill="url(#paint14_linear)"/>
</mask>
<g mask="url(#mask7)">
<path d="M26.0717 63.29C28.9592 63.29 31.3 60.9563 31.3 58.0775C31.3 55.1987 28.9592 52.865 26.0717 52.865C23.1841 52.865 20.8433 55.1987 20.8433 58.0775C20.8433 60.9563 23.1841 63.29 26.0717 63.29Z" fill="url(#paint15_linear)"/>
</g>
<mask id="mask8" mask-type="alpha" maskUnits="userSpaceOnUse" x="51" y="52" width="11" height="12">
<path d="M56.3526 63.29C59.2402 63.29 61.581 60.9563 61.581 58.0775C61.581 55.1987 59.2402 52.865 56.3526 52.865C53.4651 52.865 51.1243 55.1987 51.1243 58.0775C51.1243 60.9563 53.4651 63.29 56.3526 63.29Z" fill="url(#paint16_linear)"/>
</mask>
<g mask="url(#mask8)">
<path d="M56.3526 63.29C59.2402 63.29 61.581 60.9563 61.581 58.0775C61.581 55.1987 59.2402 52.865 56.3526 52.865C53.4651 52.865 51.1243 55.1987 51.1243 58.0775C51.1243 60.9563 53.4651 63.29 56.3526 63.29Z" fill="url(#paint17_linear)"/>
</g>
<mask id="mask9" mask-type="alpha" maskUnits="userSpaceOnUse" x="-10" y="79" width="12" height="11">
<path d="M-4.20948 89.4609C-1.32192 89.4609 1.01891 87.1271 1.01891 84.2484C1.01891 81.3696 -1.32192 79.0359 -4.20948 79.0359C-7.09703 79.0359 -9.43787 81.3696 -9.43787 84.2484C-9.43787 87.1271 -7.09703 89.4609 -4.20948 89.4609Z" fill="url(#paint18_linear)"/>
</mask>
<g mask="url(#mask9)">
<path d="M-4.20948 89.4609C-1.32192 89.4609 1.01891 87.1271 1.01891 84.2484C1.01891 81.3696 -1.32192 79.0359 -4.20948 79.0359C-7.09703 79.0359 -9.43787 81.3696 -9.43787 84.2484C-9.43787 87.1271 -7.09703 89.4609 -4.20948 89.4609Z" fill="url(#paint19_linear)"/>
</g>
<mask id="mask10" mask-type="alpha" maskUnits="userSpaceOnUse" x="20" y="79" width="12" height="11">
<path d="M26.0717 89.4609C28.9592 89.4609 31.3 87.1271 31.3 84.2484C31.3 81.3696 28.9592 79.0359 26.0717 79.0359C23.1841 79.0359 20.8433 81.3696 20.8433 84.2484C20.8433 87.1271 23.1841 89.4609 26.0717 89.4609Z" fill="url(#paint20_linear)"/>
</mask>
<g mask="url(#mask10)">
<path d="M26.0717 89.4609C28.9592 89.4609 31.3 87.1271 31.3 84.2484C31.3 81.3696 28.9592 79.0359 26.0717 79.0359C23.1841 79.0359 20.8433 81.3696 20.8433 84.2484C20.8433 87.1271 23.1841 89.4609 26.0717 89.4609Z" fill="url(#paint21_linear)"/>
</g>
<mask id="mask11" mask-type="alpha" maskUnits="userSpaceOnUse" x="51" y="79" width="11" height="11">
<path d="M56.3526 89.4609C59.2402 89.4609 61.581 87.1271 61.581 84.2484C61.581 81.3696 59.2402 79.0359 56.3526 79.0359C53.4651 79.0359 51.1243 81.3696 51.1243 84.2484C51.1243 87.1271 53.4651 89.4609 56.3526 89.4609Z" fill="url(#paint22_linear)"/>
</mask>
<g mask="url(#mask11)">
<path d="M56.3526 89.4609C59.2402 89.4609 61.581 87.1271 61.581 84.2484C61.581 81.3696 59.2402 79.0359 56.3526 79.0359C53.4651 79.0359 51.1243 81.3696 51.1243 84.2484C51.1243 87.1271 53.4651 89.4609 56.3526 89.4609Z" fill="url(#paint23_linear)"/>
</g>
<mask id="mask12" mask-type="alpha" maskUnits="userSpaceOnUse" x="-10" y="105" width="12" height="11">
<path d="M-4.20948 115.578C-1.32192 115.578 1.01891 113.244 1.01891 110.365C1.01891 107.486 -1.32192 105.153 -4.20948 105.153C-7.09703 105.153 -9.43787 107.486 -9.43787 110.365C-9.43787 113.244 -7.09703 115.578 -4.20948 115.578Z" fill="url(#paint24_linear)"/>
</mask>
<g mask="url(#mask12)">
<path d="M-4.20948 115.578C-1.32192 115.578 1.01891 113.244 1.01891 110.365C1.01891 107.486 -1.32192 105.153 -4.20948 105.153C-7.09703 105.153 -9.43787 107.486 -9.43787 110.365C-9.43787 113.244 -7.09703 115.578 -4.20948 115.578Z" fill="url(#paint25_linear)"/>
</g>
<mask id="mask13" mask-type="alpha" maskUnits="userSpaceOnUse" x="20" y="105" width="12" height="11">
<path d="M26.0717 115.578C28.9592 115.578 31.3 113.244 31.3 110.365C31.3 107.486 28.9592 105.153 26.0717 105.153C23.1841 105.153 20.8433 107.486 20.8433 110.365C20.8433 113.244 23.1841 115.578 26.0717 115.578Z" fill="url(#paint26_linear)"/>
</mask>
<g mask="url(#mask13)">
<path d="M26.0717 115.578C28.9592 115.578 31.3 113.244 31.3 110.365C31.3 107.486 28.9592 105.153 26.0717 105.153C23.1841 105.153 20.8433 107.486 20.8433 110.365C20.8433 113.244 23.1841 115.578 26.0717 115.578Z" fill="url(#paint27_linear)"/>
</g>
<mask id="mask14" mask-type="alpha" maskUnits="userSpaceOnUse" x="51" y="105" width="11" height="11">
<path d="M56.3526 115.578C59.2402 115.578 61.581 113.244 61.581 110.365C61.581 107.486 59.2402 105.153 56.3526 105.153C53.4651 105.153 51.1243 107.486 51.1243 110.365C51.1243 113.244 53.4651 115.578 56.3526 115.578Z" fill="url(#paint28_linear)"/>
</mask>
<g mask="url(#mask14)">
<path d="M56.3526 115.578C59.2402 115.578 61.581 113.244 61.581 110.365C61.581 107.486 59.2402 105.153 56.3526 105.153C53.4651 105.153 51.1243 107.486 51.1243 110.365C51.1243 113.244 53.4651 115.578 56.3526 115.578Z" fill="url(#paint29_linear)"/>
</g>
</g>
<defs>
<linearGradient id="paint0_linear" x1="37.4049" y1="111.129" x2="-33.9969" y2="-70.6751" gradientUnits="userSpaceOnUse">
<stop/>
<stop offset="1" stop-color="white"/>
</linearGradient>
<linearGradient id="paint1_linear" x1="37.4049" y1="111.129" x2="-33.9969" y2="-70.6751" gradientUnits="userSpaceOnUse">
<stop stop-color="#97C3F9"/>
<stop offset="1" stop-color="#93C1F9"/>
</linearGradient>
<linearGradient id="paint2_linear" x1="63.6092" y1="100.837" x2="-7.7927" y2="-80.967" gradientUnits="userSpaceOnUse">
<stop/>
<stop offset="1" stop-color="white"/>
</linearGradient>
<linearGradient id="paint3_linear" x1="63.6092" y1="100.837" x2="-7.7927" y2="-80.967" gradientUnits="userSpaceOnUse">
<stop stop-color="#97C3F9"/>
<stop offset="1" stop-color="#93C1F9"/>
</linearGradient>
<linearGradient id="paint4_linear" x1="89.8135" y1="90.5456" x2="18.4116" y2="-91.2586" gradientUnits="userSpaceOnUse">
<stop/>
<stop offset="1" stop-color="white"/>
</linearGradient>
<linearGradient id="paint5_linear" x1="89.8135" y1="90.5456" x2="18.4116" y2="-91.2586" gradientUnits="userSpaceOnUse">
<stop stop-color="#97C3F9"/>
<stop offset="1" stop-color="#93C1F9"/>
</linearGradient>
<linearGradient id="paint6_linear" x1="28.4624" y1="114.64" x2="-42.9381" y2="-67.1629" gradientUnits="userSpaceOnUse">
<stop/>
<stop offset="1" stop-color="white"/>
</linearGradient>
<linearGradient id="paint7_linear" x1="28.4624" y1="114.64" x2="-42.9381" y2="-67.1629" gradientUnits="userSpaceOnUse">
<stop stop-color="#97C3F9"/>
<stop offset="1" stop-color="#93C1F9"/>
</linearGradient>
<linearGradient id="paint8_linear" x1="54.6668" y1="104.348" x2="-16.7337" y2="-77.4544" gradientUnits="userSpaceOnUse">
<stop/>
<stop offset="1" stop-color="white"/>
</linearGradient>
<linearGradient id="paint9_linear" x1="54.6668" y1="104.348" x2="-16.7337" y2="-77.4544" gradientUnits="userSpaceOnUse">
<stop stop-color="#97C3F9"/>
<stop offset="1" stop-color="#93C1F9"/>
</linearGradient>
<linearGradient id="paint10_linear" x1="80.8711" y1="94.0569" x2="9.47063" y2="-87.7457" gradientUnits="userSpaceOnUse">
<stop/>
<stop offset="1" stop-color="white"/>
</linearGradient>
<linearGradient id="paint11_linear" x1="80.8711" y1="94.0569" x2="9.47063" y2="-87.7457" gradientUnits="userSpaceOnUse">
<stop stop-color="#97C3F9"/>
<stop offset="1" stop-color="#93C1F9"/>
</linearGradient>
<linearGradient id="paint12_linear" x1="19.5201" y1="118.153" x2="-51.8818" y2="-63.6515" gradientUnits="userSpaceOnUse">
<stop/>
<stop offset="1" stop-color="white"/>
</linearGradient>
<linearGradient id="paint13_linear" x1="19.5201" y1="118.153" x2="-51.8818" y2="-63.6515" gradientUnits="userSpaceOnUse">
<stop stop-color="#97C3F9"/>
<stop offset="1" stop-color="#93C1F9"/>
</linearGradient>
<linearGradient id="paint14_linear" x1="45.7244" y1="107.861" x2="-25.6775" y2="-73.9431" gradientUnits="userSpaceOnUse">
<stop/>
<stop offset="1" stop-color="white"/>
</linearGradient>
<linearGradient id="paint15_linear" x1="45.7244" y1="107.861" x2="-25.6775" y2="-73.9431" gradientUnits="userSpaceOnUse">
<stop stop-color="#97C3F9"/>
<stop offset="1" stop-color="#93C1F9"/>
</linearGradient>
<linearGradient id="paint16_linear" x1="71.9287" y1="97.5695" x2="0.526785" y2="-84.2347" gradientUnits="userSpaceOnUse">
<stop/>
<stop offset="1" stop-color="white"/>
</linearGradient>
<linearGradient id="paint17_linear" x1="71.9287" y1="97.5695" x2="0.526785" y2="-84.2347" gradientUnits="userSpaceOnUse">
<stop stop-color="#97C3F9"/>
<stop offset="1" stop-color="#93C1F9"/>
</linearGradient>
<linearGradient id="paint18_linear" x1="10.5777" y1="121.664" x2="-60.8242" y2="-60.1395" gradientUnits="userSpaceOnUse">
<stop/>
<stop offset="1" stop-color="white"/>
</linearGradient>
<linearGradient id="paint19_linear" x1="10.5777" y1="121.664" x2="-60.8242" y2="-60.1395" gradientUnits="userSpaceOnUse">
<stop stop-color="#97C3F9"/>
<stop offset="1" stop-color="#93C1F9"/>
</linearGradient>
<linearGradient id="paint20_linear" x1="36.7821" y1="111.373" x2="-34.6198" y2="-70.4312" gradientUnits="userSpaceOnUse">
<stop/>
<stop offset="1" stop-color="white"/>
</linearGradient>
<linearGradient id="paint21_linear" x1="36.7821" y1="111.373" x2="-34.6198" y2="-70.4312" gradientUnits="userSpaceOnUse">
<stop stop-color="#97C3F9"/>
<stop offset="1" stop-color="#93C1F9"/>
</linearGradient>
<linearGradient id="paint22_linear" x1="62.9863" y1="101.081" x2="-8.41556" y2="-80.7227" gradientUnits="userSpaceOnUse">
<stop/>
<stop offset="1" stop-color="white"/>
</linearGradient>
<linearGradient id="paint23_linear" x1="62.9863" y1="101.081" x2="-8.41556" y2="-80.7227" gradientUnits="userSpaceOnUse">
<stop stop-color="#97C3F9"/>
<stop offset="1" stop-color="#93C1F9"/>
</linearGradient>
<linearGradient id="paint24_linear" x1="1.63532" y1="125.176" x2="-69.7662" y2="-56.6271" gradientUnits="userSpaceOnUse">
<stop/>
<stop offset="1" stop-color="white"/>
</linearGradient>
<linearGradient id="paint25_linear" x1="1.63532" y1="125.176" x2="-69.7662" y2="-56.6271" gradientUnits="userSpaceOnUse">
<stop stop-color="#97C3F9"/>
<stop offset="1" stop-color="#93C1F9"/>
</linearGradient>
<linearGradient id="paint26_linear" x1="27.8397" y1="114.885" x2="-43.5619" y2="-66.9188" gradientUnits="userSpaceOnUse">
<stop/>
<stop offset="1" stop-color="white"/>
</linearGradient>
<linearGradient id="paint27_linear" x1="27.8397" y1="114.885" x2="-43.5619" y2="-66.9188" gradientUnits="userSpaceOnUse">
<stop stop-color="#97C3F9"/>
<stop offset="1" stop-color="#93C1F9"/>
</linearGradient>
<linearGradient id="paint28_linear" x1="54.044" y1="104.593" x2="-17.3576" y2="-77.2103" gradientUnits="userSpaceOnUse">
<stop/>
<stop offset="1" stop-color="white"/>
</linearGradient>
<linearGradient id="paint29_linear" x1="54.044" y1="104.593" x2="-17.3576" y2="-77.2103" gradientUnits="userSpaceOnUse">
<stop stop-color="#97C3F9"/>
<stop offset="1" stop-color="#93C1F9"/>
</linearGradient>
</defs>
</svg>
