<svg width="120" height="131" viewBox="0 0 120 131" fill="none" xmlns="http://www.w3.org/2000/svg">
<path d="M120 87.5176V43.3915C120 35.7523 115.91 28.7006 109.238 24.9077L70.7623 2.84469C64.0897 -0.948229 55.9103 -0.948229 49.2377 2.84469L10.7623 24.9077C4.08969 28.7006 0 35.8057 0 43.3915V87.5176C0 95.1568 4.08969 102.208 10.7623 106.001L49.2377 128.064C55.9103 131.857 64.0897 131.857 70.7623 128.064L109.238 106.001C115.91 102.208 120 95.1568 120 87.5176Z" fill="url(#paint0_linear)"/>
<path d="M80.9589 83.5805C78.231 83.5805 75.8214 81.9438 74.7757 79.3523L71.9115 72.9419C71.7751 72.6237 71.5478 72.4873 71.3205 72.4873H48.6793C48.4066 72.4873 48.1792 72.6237 48.0883 72.8964L45.1786 79.4432C44.1784 81.9438 41.7688 83.5805 39.041 83.5805C37.0405 83.5805 35.1765 82.6712 33.9035 81.1254C32.6305 79.5342 32.1304 77.4883 32.5396 75.4879L37.1315 53.8015C37.9953 49.7552 41.5869 46.8 45.7242 46.8H74.2756C78.3674 46.8 82.0045 49.7552 82.8683 53.8015L87.4602 75.4879C87.8694 77.4883 87.3693 79.5342 86.0963 81.1254C84.8233 82.6712 82.9593 83.5805 80.9589 83.5805ZM48.6793 69.032H71.3659C73.0481 69.032 74.5484 70.0322 75.1394 71.6234L78.0037 78.0339C78.5038 79.3523 79.6859 80.1252 81.0043 80.1252C81.9591 80.1252 82.8683 79.716 83.4594 78.9431C84.0959 78.1702 84.3232 77.17 84.1413 76.1698L79.5495 54.4835C79.0039 51.983 76.8216 50.2099 74.3211 50.2099H45.7242C43.2237 50.2099 41.0414 52.0284 40.4958 54.4835L35.9494 76.1698C35.7221 77.17 35.9949 78.1702 36.6314 78.9431C37.2224 79.6706 38.1317 80.1252 39.0864 80.1252C40.4049 80.1252 41.5415 79.3068 42.0416 78.0793L44.9513 71.5325C45.4969 70.0322 46.9972 69.032 48.6793 69.032Z" fill="white"/>
<path d="M49.6795 65.1675C48.7248 65.1675 47.9519 64.3946 47.9519 63.4398V55.3927C47.9519 54.438 48.7248 53.665 49.6795 53.665C50.6343 53.665 51.4072 54.438 51.4072 55.3927V63.4398C51.4072 64.3946 50.6343 65.1675 49.6795 65.1675Z" fill="white"/>
<path d="M53.6803 61.1664H45.6332C44.6784 61.1664 43.9055 60.3935 43.9055 59.4388C43.9055 58.484 44.6784 57.7112 45.6332 57.7112H53.6803C54.635 57.7112 55.4079 58.484 55.4079 59.4388C55.4079 60.3935 54.635 61.1664 53.6803 61.1664Z" fill="white"/>
<path d="M70.3657 65.1674C67.1832 65.1674 64.6372 62.5759 64.6372 59.4389C64.6372 56.3019 67.2287 53.7104 70.3657 53.7104C73.5027 53.7104 76.0942 56.3019 76.0942 59.4389C76.0942 62.5759 73.5027 65.1674 70.3657 65.1674ZM70.3657 57.1203C69.0927 57.1203 68.047 58.1659 68.047 59.4389C68.047 60.7119 69.0927 61.7576 70.3657 61.7576C71.6387 61.7576 72.6843 60.7119 72.6843 59.4389C72.6843 58.1659 71.6387 57.1203 70.3657 57.1203Z" fill="white"/>
<defs>
<linearGradient id="paint0_linear" x1="6.25066" y1="100.505" x2="115.37" y2="28.3603" gradientUnits="userSpaceOnUse">
<stop stop-color="#A1C4FD"/>
<stop offset="1" stop-color="#61A0FF"/>
</linearGradient>
</defs>
</svg>
