<svg width="12" height="13" viewBox="0 0 12 13" fill="none" xmlns="http://www.w3.org/2000/svg">
<path d="M0.610706 9.13256V3.71039C0.610706 3.35292 0.800694 3.02294 1.11068 2.84545L5.80539 0.133117C6.11537 -0.0443722 6.49534 -0.0443722 6.80532 0.133117L11.5 2.84295C11.81 3.02044 12 3.35292 12 3.7079V9.13006C12 9.48754 11.81 9.81752 11.5 9.99501L6.80532 12.7073C6.49534 12.8848 6.11537 12.8848 5.80539 12.7073L1.11068 9.99751C0.800694 9.82002 0.610706 9.48754 0.610706 9.13256Z" fill="#97C3F9"/>
</svg>
