<svg width="605" height="141" viewBox="0 0 605 141" fill="none" xmlns="http://www.w3.org/2000/svg">
<path d="M7.89839 141C3.50135 141 0 137.431 0 133.132V85.1719H605V133.132C605 137.512 601.417 141 597.102 141H7.89839Z" fill="url(#paint0_linear)"/>
<path d="M5.8627 90.8501C3.41991 90.8501 1.30281 89.3089 0.569973 86.9565C-0.162867 84.6041 0.732827 82.1706 2.76849 80.7917L108.135 9.73394C117.661 3.40688 128.736 0 140.217 0H464.865C476.346 0 487.42 3.40688 496.865 9.81505L602.231 80.8728C604.267 82.2518 605.163 84.6852 604.43 87.0376C603.697 89.39 601.661 90.9312 599.137 90.9312H5.8627V90.8501Z" fill="url(#paint1_linear)"/>
<defs>
<linearGradient id="paint0_linear" x1="-576.308" y1="83.1773" x2="-565.626" y2="211.201" gradientUnits="userSpaceOnUse">
<stop stop-color="white"/>
<stop offset="1" stop-color="#BDE2FC"/>
</linearGradient>
<linearGradient id="paint1_linear" x1="-575.388" y1="-3.24863" x2="-547.34" y2="202.909" gradientUnits="userSpaceOnUse">
<stop stop-color="white"/>
<stop offset="1" stop-color="#BDE2FC"/>
</linearGradient>
</defs>
</svg>
